GGplot Practice
…
lizard_counts 

# A tibble: 184 × 2
   date           n
   <date>     <int>
 1 1989-06-16    18
 2 1989-06-20    21
 3 1989-06-23    17
 4 1989-06-27    11
 5 1989-07-18    11
 6 1989-07-21    16
 7 1989-07-28    11
 8 1989-08-22    16
 9 1989-08-25    15
10 1989-09-01    11
# ℹ 174 more rows
…
